%YAML 1.1
%TAG !u! tag:unity3d.com,2011:
--- !u!114 &11400000
MonoBehaviour:
  m_ObjectHideFlags: 0
  m_CorrespondingSourceObject: {fileID: 0}
  m_PrefabInstance: {fileID: 0}
  m_PrefabAsset: {fileID: 0}
  m_GameObject: {fileID: 0}
  m_Enabled: 1
  m_EditorHideFlags: 0
  m_Script: {fileID: 11500000, guid: 59c8c704282d363409cca6b3ed94ab4a, type: 3}
  m_Name: AdvancedRecipeBook
  m_EditorClassIdentifier: 
  title: Advanced Recipe Book
  upper: "I\u2019m surprised you\u2019ve managed to get this far with your shop.
    I was betting a small sum of a hundred gold with Claudia, thinking you weren\u2019t
    capable of such things. Yet here we are!"
  lower: "I suppose with your hard work, you deserve an award. Here\u2019s this Recipe
    book. I obviously don\u2019t need it since I\u2019m a master now, but since a
    newbie like yourself has a long way to go, enjoy."
  greeting: Hello Rose,
  salutation: Sincerely, Koji
  textSize: 26
  bodyImages:
    topFlapOpen: {fileID: 21300000, guid: 3a13a3342abfb4f6da2a3486c33ecd2e, type: 3}
    topFlapClosed: {fileID: 21300000, guid: 46e21bc1f0a10405292a8058820da6fc, type: 3}
    bottomFlapOpen: {fileID: 21300000, guid: fa3c6ef2c41c148b29ad1fb1f4f5e2ed, type: 3}
    bottomFlapClosed: {fileID: 21300000, guid: b642a86aa15734c368274553991a2294, type: 3}
    middle: {fileID: 21300000, guid: eb3f187a47fce42ba8ceb7ab1b868b63, type: 3}
