%YAML 1.1
%TAG !u! tag:unity3d.com,2011:
--- !u!114 &11400000
MonoBehaviour:
  m_ObjectHideFlags: 0
  m_CorrespondingSourceObject: {fileID: 0}
  m_PrefabInstance: {fileID: 0}
  m_PrefabAsset: {fileID: 0}
  m_GameObject: {fileID: 0}
  m_Enabled: 1
  m_EditorHideFlags: 0
  m_Script: {fileID: 11500000, guid: 59c8c704282d363409cca6b3ed94ab4a, type: 3}
  m_Name: DeepWoods
  m_EditorClassIdentifier: 
  title: Deep Woods
  upper: 'Hope everything in the shop is running smoothly for you. I wanted to pass
    on some information I found along with my studies. There appears to be a haven
    within the forest behind your shop. '
  lower: "It\u2019s deeper in the woods so I suggest being careful. This time I made
    a passage describing where this haven is located\u2026it appears to be toward
    the center of the forest. I hope this helps, little flower."
  greeting: Hello little flower,
  salutation: 'Stay Safe, Claudia '
  textSize: 25
  bodyImages:
    topFlapOpen: {fileID: 21300000, guid: 33a86bdf4ba0248ffb216f63e5fe2b31, type: 3}
    topFlapClosed: {fileID: 21300000, guid: eb8666e3f60a54a6996a4c2f88534e74, type: 3}
    bottomFlapOpen: {fileID: 21300000, guid: 8ea2cb6818c92419887d992426888a89, type: 3}
    bottomFlapClosed: {fileID: 21300000, guid: 3bf973bc8f1324575afc88d1a3f6db52, type: 3}
    middle: {fileID: 21300000, guid: 8ea2cb6818c92419887d992426888a89, type: 3}
