%YAML 1.1
%TAG !u! tag:unity3d.com,2011:
--- !u!114 &11400000
MonoBehaviour:
  m_ObjectHideFlags: 0
  m_CorrespondingSourceObject: {fileID: 0}
  m_PrefabInstance: {fileID: 0}
  m_PrefabAsset: {fileID: 0}
  m_GameObject: {fileID: 0}
  m_Enabled: 1
  m_EditorHideFlags: 0
  m_Script: {fileID: 11500000, guid: 59c8c704282d363409cca6b3ed94ab4a, type: 3}
  m_Name: LightningLake
  m_EditorClassIdentifier: 
  title: Lightning Lake
  upper: "How\u2019s it going? I\u2019ve noticed one of my acquaintances has some
    familiarity with the forest near your shop. I chatted with her a bit and found
    out some interesting things. "
  lower: If I recall, it was a small lake somewhere near the forest. Have this map
    I drew. Between us two, it might be better for you to take a look at this place
    as it might help you find more familiars.
  greeting: Hi there Rose,
  salutation: 'Safe Travels,  Lucas '
  textSize: 26
  bodyImages:
    topFlapOpen: {fileID: 21300000, guid: b5b596d31a4b04a3199d19ce650096f8, type: 3}
    topFlapClosed: {fileID: 21300000, guid: 0c89eeaeac35e48e3b44ee2f249de06d, type: 3}
    bottomFlapOpen: {fileID: 21300000, guid: b8e4b68a8146a4bf1ba0cc01faab33d5, type: 3}
    bottomFlapClosed: {fileID: 21300000, guid: 44e3c4ea4cdaa4b82ba75fcd121ed59a, type: 3}
    middle: {fileID: 21300000, guid: b8e4b68a8146a4bf1ba0cc01faab33d5, type: 3}
