%YAML 1.1
%TAG !u! tag:unity3d.com,2011:
--- !u!1001 &727851500138247100
PrefabInstance:
  m_ObjectHideFlags: 0
  serializedVersion: 2
  m_Modification:
    m_TransformParent: {fileID: 0}
    m_Modifications:
    - target: {fileID: 62592588221911299, guid: b6345000febf2c0428fb5b748a47e087, type: 3}
      propertyPath: cardLevel
      value: 2
      objectReference: {fileID: 0}
    - target: {fileID: 62592588221911299, guid: b6345000febf2c0428fb5b748a47e087, type: 3}
      propertyPath: crews.Array.size
      value: 3
      objectReference: {fileID: 0}
    - target: {fileID: 62592588221911299, guid: b6345000febf2c0428fb5b748a47e087, type: 3}
      propertyPath: crews.Array.data[0]
      value: 
      objectReference: {fileID: 11400000, guid: ec2bd363930ff7d45b935931d5571078, type: 2}
    - target: {fileID: 62592588221911299, guid: b6345000febf2c0428fb5b748a47e087, type: 3}
      propertyPath: crews.Array.data[1]
      value: 
      objectReference: {fileID: 11400000, guid: 6aae4b1f330d05d459b935a7d96db7ee, type: 2}
    - target: {fileID: 62592588221911299, guid: b6345000febf2c0428fb5b748a47e087, type: 3}
      propertyPath: crews.Array.data[2]
      value: 
      objectReference: {fileID: 11400000, guid: b735ea970ccf9254688399398d98d2f9, type: 2}
    - target: {fileID: 3825981595606692599, guid: b6345000febf2c0428fb5b748a47e087, type: 3}
      propertyPath: m_Name
      value: CrewCardLvl2
      objectReference: {fileID: 0}
    - target: {fileID: 4752881353245856820, guid: b6345000febf2c0428fb5b748a47e087, type: 3}
      propertyPath: m_Pivot.x
      value: 0.5
      objectReference: {fileID: 0}
    - target: {fileID: 4752881353245856820, guid: b6345000febf2c0428fb5b748a47e087, type: 3}
      propertyPath: m_Pivot.y
      value: 0.5
      objectReference: {fileID: 0}
    - target: {fileID: 4752881353245856820, guid: b6345000febf2c0428fb5b748a47e087, type: 3}
      propertyPath: m_RootOrder
      value: 0
      objectReference: {fileID: 0}
    - target: {fileID: 4752881353245856820, guid: b6345000febf2c0428fb5b748a47e087, type: 3}
      propertyPath: m_AnchorMax.x
      value: 0.5
      objectReference: {fileID: 0}
    - target: {fileID: 4752881353245856820, guid: b6345000febf2c0428fb5b748a47e087, type: 3}
      propertyPath: m_AnchorMax.y
      value: 0.5
      objectReference: {fileID: 0}
    - target: {fileID: 4752881353245856820, guid: b6345000febf2c0428fb5b748a47e087, type: 3}
      propertyPath: m_AnchorMin.x
      value: 0.5
      objectReference: {fileID: 0}
    - target: {fileID: 4752881353245856820, guid: b6345000febf2c0428fb5b748a47e087, type: 3}
      propertyPath: m_AnchorMin.y
      value: 0.5
      objectReference: {fileID: 0}
    - target: {fileID: 4752881353245856820, guid: b6345000febf2c0428fb5b748a47e087, type: 3}
      propertyPath: m_SizeDelta.x
      value: 351.2465
      objectReference: {fileID: 0}
    - target: {fileID: 4752881353245856820, guid: b6345000febf2c0428fb5b748a47e087, type: 3}
      propertyPath: m_SizeDelta.y
      value: 516.8192
      objectReference: {fileID: 0}
    - target: {fileID: 4752881353245856820, guid: b6345000febf2c0428fb5b748a47e087, type: 3}
      propertyPath: m_LocalPosition.x
      value: 0
      objectReference: {fileID: 0}
    - target: {fileID: 4752881353245856820, guid: b6345000febf2c0428fb5b748a47e087, type: 3}
      propertyPath: m_LocalPosition.y
      value: 0
      objectReference: {fileID: 0}
    - target: {fileID: 4752881353245856820, guid: b6345000febf2c0428fb5b748a47e087, type: 3}
      propertyPath: m_LocalPosition.z
      value: 0
      objectReference: {fileID: 0}
    - target: {fileID: 4752881353245856820, guid: b6345000febf2c0428fb5b748a47e087, type: 3}
      propertyPath: m_LocalRotation.w
      value: 1
      objectReference: {fileID: 0}
    - target: {fileID: 4752881353245856820, guid: b6345000febf2c0428fb5b748a47e087, type: 3}
      propertyPath: m_LocalRotation.x
      value: 0
      objectReference: {fileID: 0}
    - target: {fileID: 4752881353245856820, guid: b6345000febf2c0428fb5b748a47e087, type: 3}
      propertyPath: m_LocalRotation.y
      value: 0
      objectReference: {fileID: 0}
    - target: {fileID: 4752881353245856820, guid: b6345000febf2c0428fb5b748a47e087, type: 3}
      propertyPath: m_LocalRotation.z
      value: 0
      objectReference: {fileID: 0}
    - target: {fileID: 4752881353245856820, guid: b6345000febf2c0428fb5b748a47e087, type: 3}
      propertyPath: m_AnchoredPosition.x
      value: -16.0437
      objectReference: {fileID: 0}
    - target: {fileID: 4752881353245856820, guid: b6345000febf2c0428fb5b748a47e087, type: 3}
      propertyPath: m_AnchoredPosition.y
      value: 26.6167
      objectReference: {fileID: 0}
    - target: {fileID: 4752881353245856820, guid: b6345000febf2c0428fb5b748a47e087, type: 3}
      propertyPath: m_LocalEulerAnglesHint.x
      value: 0
      objectReference: {fileID: 0}
    - target: {fileID: 4752881353245856820, guid: b6345000febf2c0428fb5b748a47e087, type: 3}
      propertyPath: m_LocalEulerAnglesHint.y
      value: 0
      objectReference: {fileID: 0}
    - target: {fileID: 4752881353245856820, guid: b6345000febf2c0428fb5b748a47e087, type: 3}
      propertyPath: m_LocalEulerAnglesHint.z
      value: 0
      objectReference: {fileID: 0}
    m_RemovedComponents: []
  m_SourcePrefab: {fileID: 100100000, guid: b6345000febf2c0428fb5b748a47e087, type: 3}
