%YAML 1.1
%TAG !u! tag:unity3d.com,2011:
--- !u!1001 &997639125232271162
PrefabInstance:
  m_ObjectHideFlags: 0
  serializedVersion: 2
  m_Modification:
    m_TransformParent: {fileID: 0}
    m_Modifications:
    - target: {fileID: 6176688031639836269, guid: 8383f76ea63a01942bceb3ad55db98b9, type: 3}
      propertyPath: m_AnchorMax.y
      value: 0
      objectReference: {fileID: 0}
    - target: {fileID: 6176688031639836269, guid: 8383f76ea63a01942bceb3ad55db98b9, type: 3}
      propertyPath: m_AnchorMin.y
      value: 0
      objectReference: {fileID: 0}
    - target: {fileID: 6176688031639836269, guid: 8383f76ea63a01942bceb3ad55db98b9, type: 3}
      propertyPath: m_SizeDelta.x
      value: 0
      objectReference: {fileID: 0}
    - target: {fileID: 6176688031639836269, guid: 8383f76ea63a01942bceb3ad55db98b9, type: 3}
      propertyPath: m_SizeDelta.y
      value: 0
      objectReference: {fileID: 0}
    - target: {fileID: 6176688031639836269, guid: 8383f76ea63a01942bceb3ad55db98b9, type: 3}
      propertyPath: m_AnchoredPosition.x
      value: 0
      objectReference: {fileID: 0}
    - target: {fileID: 6176688031639836269, guid: 8383f76ea63a01942bceb3ad55db98b9, type: 3}
      propertyPath: m_AnchoredPosition.y
      value: 0
      objectReference: {fileID: 0}
    - target: {fileID: 6176688032034560248, guid: 8383f76ea63a01942bceb3ad55db98b9, type: 3}
      propertyPath: m_AnchorMax.y
      value: 0
      objectReference: {fileID: 0}
    - target: {fileID: 6176688032034560248, guid: 8383f76ea63a01942bceb3ad55db98b9, type: 3}
      propertyPath: m_AnchorMin.y
      value: 0
      objectReference: {fileID: 0}
    - target: {fileID: 6176688032034560248, guid: 8383f76ea63a01942bceb3ad55db98b9, type: 3}
      propertyPath: m_SizeDelta.x
      value: 0
      objectReference: {fileID: 0}
    - target: {fileID: 6176688032034560248, guid: 8383f76ea63a01942bceb3ad55db98b9, type: 3}
      propertyPath: m_SizeDelta.y
      value: 0
      objectReference: {fileID: 0}
    - target: {fileID: 6176688032034560248, guid: 8383f76ea63a01942bceb3ad55db98b9, type: 3}
      propertyPath: m_AnchoredPosition.x
      value: 0
      objectReference: {fileID: 0}
    - target: {fileID: 6176688032034560248, guid: 8383f76ea63a01942bceb3ad55db98b9, type: 3}
      propertyPath: m_AnchoredPosition.y
      value: 0
      objectReference: {fileID: 0}
    - target: {fileID: 6176688032448425048, guid: 8383f76ea63a01942bceb3ad55db98b9, type: 3}
      propertyPath: m_AnchorMax.y
      value: 0
      objectReference: {fileID: 0}
    - target: {fileID: 6176688032448425048, guid: 8383f76ea63a01942bceb3ad55db98b9, type: 3}
      propertyPath: m_AnchorMin.y
      value: 0
      objectReference: {fileID: 0}
    - target: {fileID: 6176688032448425048, guid: 8383f76ea63a01942bceb3ad55db98b9, type: 3}
      propertyPath: m_SizeDelta.x
      value: 0
      objectReference: {fileID: 0}
    - target: {fileID: 6176688032448425048, guid: 8383f76ea63a01942bceb3ad55db98b9, type: 3}
      propertyPath: m_SizeDelta.y
      value: 0
      objectReference: {fileID: 0}
    - target: {fileID: 6176688032448425048, guid: 8383f76ea63a01942bceb3ad55db98b9, type: 3}
      propertyPath: m_AnchoredPosition.x
      value: 0
      objectReference: {fileID: 0}
    - target: {fileID: 6176688032448425048, guid: 8383f76ea63a01942bceb3ad55db98b9, type: 3}
      propertyPath: m_AnchoredPosition.y
      value: 0
      objectReference: {fileID: 0}
    - target: {fileID: 6176688033542001398, guid: 8383f76ea63a01942bceb3ad55db98b9, type: 3}
      propertyPath: m_Name
      value: OptionsMenuMain
      objectReference: {fileID: 0}
    - target: {fileID: 6176688033542001398, guid: 8383f76ea63a01942bceb3ad55db98b9, type: 3}
      propertyPath: m_IsActive
      value: 1
      objectReference: {fileID: 0}
    - target: {fileID: 6176688033542001399, guid: 8383f76ea63a01942bceb3ad55db98b9, type: 3}
      propertyPath: m_Pivot.x
      value: 0.5
      objectReference: {fileID: 0}
    - target: {fileID: 6176688033542001399, guid: 8383f76ea63a01942bceb3ad55db98b9, type: 3}
      propertyPath: m_Pivot.y
      value: 0.5
      objectReference: {fileID: 0}
    - target: {fileID: 6176688033542001399, guid: 8383f76ea63a01942bceb3ad55db98b9, type: 3}
      propertyPath: m_RootOrder
      value: 0
      objectReference: {fileID: 0}
    - target: {fileID: 6176688033542001399, guid: 8383f76ea63a01942bceb3ad55db98b9, type: 3}
      propertyPath: m_AnchorMax.x
      value: 1
      objectReference: {fileID: 0}
    - target: {fileID: 6176688033542001399, guid: 8383f76ea63a01942bceb3ad55db98b9, type: 3}
      propertyPath: m_AnchorMax.y
      value: 1
      objectReference: {fileID: 0}
    - target: {fileID: 6176688033542001399, guid: 8383f76ea63a01942bceb3ad55db98b9, type: 3}
      propertyPath: m_AnchorMin.x
      value: 0
      objectReference: {fileID: 0}
    - target: {fileID: 6176688033542001399, guid: 8383f76ea63a01942bceb3ad55db98b9, type: 3}
      propertyPath: m_AnchorMin.y
      value: 0
      objectReference: {fileID: 0}
    - target: {fileID: 6176688033542001399, guid: 8383f76ea63a01942bceb3ad55db98b9, type: 3}
      propertyPath: m_SizeDelta.x
      value: -1100
      objectReference: {fileID: 0}
    - target: {fileID: 6176688033542001399, guid: 8383f76ea63a01942bceb3ad55db98b9, type: 3}
      propertyPath: m_SizeDelta.y
      value: -310
      objectReference: {fileID: 0}
    - target: {fileID: 6176688033542001399, guid: 8383f76ea63a01942bceb3ad55db98b9, type: 3}
      propertyPath: m_LocalPosition.x
      value: 0
      objectReference: {fileID: 0}
    - target: {fileID: 6176688033542001399, guid: 8383f76ea63a01942bceb3ad55db98b9, type: 3}
      propertyPath: m_LocalPosition.y
      value: 0
      objectReference: {fileID: 0}
    - target: {fileID: 6176688033542001399, guid: 8383f76ea63a01942bceb3ad55db98b9, type: 3}
      propertyPath: m_LocalPosition.z
      value: 0
      objectReference: {fileID: 0}
    - target: {fileID: 6176688033542001399, guid: 8383f76ea63a01942bceb3ad55db98b9, type: 3}
      propertyPath: m_LocalRotation.w
      value: 1
      objectReference: {fileID: 0}
    - target: {fileID: 6176688033542001399, guid: 8383f76ea63a01942bceb3ad55db98b9, type: 3}
      propertyPath: m_LocalRotation.x
      value: -0
      objectReference: {fileID: 0}
    - target: {fileID: 6176688033542001399, guid: 8383f76ea63a01942bceb3ad55db98b9, type: 3}
      propertyPath: m_LocalRotation.y
      value: -0
      objectReference: {fileID: 0}
    - target: {fileID: 6176688033542001399, guid: 8383f76ea63a01942bceb3ad55db98b9, type: 3}
      propertyPath: m_LocalRotation.z
      value: -0
      objectReference: {fileID: 0}
    - target: {fileID: 6176688033542001399, guid: 8383f76ea63a01942bceb3ad55db98b9, type: 3}
      propertyPath: m_AnchoredPosition.x
      value: 0
      objectReference: {fileID: 0}
    - target: {fileID: 6176688033542001399, guid: 8383f76ea63a01942bceb3ad55db98b9, type: 3}
      propertyPath: m_AnchoredPosition.y
      value: 82
      objectReference: {fileID: 0}
    - target: {fileID: 6176688033542001399, guid: 8383f76ea63a01942bceb3ad55db98b9, type: 3}
      propertyPath: m_LocalEulerAnglesHint.x
      value: 0
      objectReference: {fileID: 0}
    - target: {fileID: 6176688033542001399, guid: 8383f76ea63a01942bceb3ad55db98b9, type: 3}
      propertyPath: m_LocalEulerAnglesHint.y
      value: 0
      objectReference: {fileID: 0}
    - target: {fileID: 6176688033542001399, guid: 8383f76ea63a01942bceb3ad55db98b9, type: 3}
      propertyPath: m_LocalEulerAnglesHint.z
      value: 0
      objectReference: {fileID: 0}
    m_RemovedComponents: []
  m_SourcePrefab: {fileID: 100100000, guid: 8383f76ea63a01942bceb3ad55db98b9, type: 3}
