%YAML 1.1
%TAG !u! tag:unity3d.com,2011:
--- !u!114 &11400000
MonoBehaviour:
  m_ObjectHideFlags: 0
  m_CorrespondingSourceObject: {fileID: 0}
  m_PrefabInstance: {fileID: 0}
  m_PrefabAsset: {fileID: 0}
  m_GameObject: {fileID: 0}
  m_Enabled: 1
  m_EditorHideFlags: 0
  m_Script: {fileID: 11500000, guid: c140537b342d9e647bc7a7a5d7099db4, type: 3}
  m_Name: glaciershield_potion
  m_EditorClassIdentifier: 
  item_name: glaciershield_potion
  displayed_name: Glaciershield Potion
  use_text: "A polar potion that bestows the drinker the ability to withstand even
    the most subzero of temperatures, thanks to an ancient witchcraft trick utilizing
    ice fruit and wick grass\u2019s elemental nature- allowing them to feel at ease
    in the cold anywhere."
  sellPrice: 30
  sprite: {fileID: 21300000, guid: 501a2b2ef8c9c45f8bc6d511c692ad1e, type: 3}
  textColor: {r: 0.15619439, g: 0.7130345, b: 0.8490566, a: 1}
  stackable: 1
  level: 3
  icon_index: -1
  price_min: 1
  price_max: 100
  allTimeLow: 5
  allTimeHigh: 99
  shop_level: 8
  isSeed: 0
  outputYield: 1
  availableOnDay: 0
  crafting_type: 0
  recipe:
  - {fileID: 11400000, guid: d9b590aa88a9b5c4685ecdeddda351ce, type: 2}
  - {fileID: 11400000, guid: d9b590aa88a9b5c4685ecdeddda351ce, type: 2}
  - {fileID: 11400000, guid: a4f1a62d78b2d6548bb073adf3cfab22, type: 2}
  - {fileID: 11400000, guid: 29b055c2bcc31b147af2570fe1a41eb1, type: 2}
  days_to_craft: 1
