%YAML 1.1
%TAG !u! tag:unity3d.com,2011:
--- !u!114 &11400000
MonoBehaviour:
  m_ObjectHideFlags: 0
  m_CorrespondingSourceObject: {fileID: 0}
  m_PrefabInstance: {fileID: 0}
  m_PrefabAsset: {fileID: 0}
  m_GameObject: {fileID: 0}
  m_Enabled: 1
  m_EditorHideFlags: 0
  m_Script: {fileID: 11500000, guid: c140537b342d9e647bc7a7a5d7099db4, type: 3}
  m_Name: lucky_pill
  m_EditorClassIdentifier: 
  item_name: lucky_pill
  displayed_name: Lucky Lozenge
  use_text: A peculiar pill that, when consumed, will boost the confidence and luck
    of the user for one hour precisely. The method of making this particular pill
    is extremely difficult, making it a very valuable item. Popular amongst young
    students at schools for their exams.
  sellPrice: 35
  sprite: {fileID: 21300000, guid: b1af57fb6d2fe4a268ae151cacc4a914, type: 3}
  textColor: {r: 0.5632893, g: 0.7169812, b: 0.02367392, a: 1}
  stackable: 1
  level: 3
  icon_index: -1
  price_min: 1
  price_max: 100
  allTimeLow: 5
  allTimeHigh: 99
  shop_level: 8
  isSeed: 0
  outputYield: 1
  availableOnDay: 0
  crafting_type: 0
  recipe:
  - {fileID: 11400000, guid: 4c01c8d0b49b6c44e88eda3126c95836, type: 2}
  - {fileID: 11400000, guid: 4c01c8d0b49b6c44e88eda3126c95836, type: 2}
  - {fileID: 11400000, guid: 39fb14f78b6c6fc429c2a6e21ad212c5, type: 2}
  - {fileID: 11400000, guid: f472e2b27b6eb5a4aac3227d07133344, type: 2}
  days_to_craft: 1
