%YAML 1.1
%TAG !u! tag:unity3d.com,2011:
--- !u!114 &11400000
MonoBehaviour:
  m_ObjectHideFlags: 0
  m_CorrespondingSourceObject: {fileID: 0}
  m_PrefabInstance: {fileID: 0}
  m_PrefabAsset: {fileID: 0}
  m_GameObject: {fileID: 0}
  m_Enabled: 1
  m_EditorHideFlags: 0
  m_Script: {fileID: 11500000, guid: c140537b342d9e647bc7a7a5d7099db4, type: 3}
  m_Name: potion_of_night_vision
  m_EditorClassIdentifier: 
  item_name: potion_of_night_vision
  displayed_name: Potion of Night Vision
  use_text: A powerful purple potion that glows with the aura of the stars. The luminous
    properties of miskweed bulbs infused into the mixture allow for the drinker to
    see clearly in absolute darkness for up to 15 minutes. This cosmic-colored creation
    has a bitter flavor that soon turns sweet.
  sellPrice: 10
  sprite: {fileID: 21300000, guid: c24285b120c47459aa874efd0097045b, type: 3}
  textColor: {r: 0.64705884, g: 0.1254902, b: 0.5011613, a: 1}
  stackable: 1
  level: 1
  icon_index: 0
  price_min: 1
  price_max: 100
  allTimeLow: 5
  allTimeHigh: 24
  shop_level: 0
  isSeed: 0
  outputYield: 1
  availableOnDay: 0
  crafting_type: 0
  recipe:
  - {fileID: 11400000, guid: 0a2b742cce9353242a9c30de2fe3692d, type: 2}
  - {fileID: 11400000, guid: 0a2b742cce9353242a9c30de2fe3692d, type: 2}
  - {fileID: 11400000, guid: aa8e40d20876e2944862323dd4ff9eef, type: 2}
  - {fileID: 11400000, guid: aa8e40d20876e2944862323dd4ff9eef, type: 2}
  days_to_craft: 1
