%YAML 1.1
%TAG !u! tag:unity3d.com,2011:
--- !u!114 &11400000
MonoBehaviour:
  m_ObjectHideFlags: 0
  m_CorrespondingSourceObject: {fileID: 0}
  m_PrefabInstance: {fileID: 0}
  m_PrefabAsset: {fileID: 0}
  m_GameObject: {fileID: 0}
  m_Enabled: 1
  m_EditorHideFlags: 0
  m_Script: {fileID: 11500000, guid: c140537b342d9e647bc7a7a5d7099db4, type: 3}
  m_Name: serenity_pill
  m_EditorClassIdentifier: 
  item_name: serenity_pill
  displayed_name: Serenity Pill
  use_text: A calming caplet that gives off a mystifying aura of magical power. When
    ingested, a soothing wave of relaxation will wash over the user or target, pacifying
    them for a short time. Many hunters use this to pacify ferocious beasts or rowdy
    livestock.
  sellPrice: 20
  sprite: {fileID: 21300000, guid: aaccf81a95b964b56b40eb78d358b4e7, type: 3}
  textColor: {r: 0.3215112, g: 0.47900528, b: 0.8018868, a: 1}
  stackable: 1
  level: 2
  icon_index: -1
  price_min: 1
  price_max: 100
  allTimeLow: 5
  allTimeHigh: 59
  shop_level: 4
  isSeed: 0
  outputYield: 1
  availableOnDay: 0
  crafting_type: 0
  recipe:
  - {fileID: 11400000, guid: b62c569afd26e914f8345efb0c085732, type: 2}
  - {fileID: 11400000, guid: b62c569afd26e914f8345efb0c085732, type: 2}
  - {fileID: 11400000, guid: f472e2b27b6eb5a4aac3227d07133344, type: 2}
  - {fileID: 11400000, guid: aa8e40d20876e2944862323dd4ff9eef, type: 2}
  days_to_craft: 1
