%YAML 1.1
%TAG !u! tag:unity3d.com,2011:
--- !u!114 &11400000
MonoBehaviour:
  m_ObjectHideFlags: 0
  m_CorrespondingSourceObject: {fileID: 0}
  m_PrefabInstance: {fileID: 0}
  m_PrefabAsset: {fileID: 0}
  m_GameObject: {fileID: 0}
  m_Enabled: 1
  m_EditorHideFlags: 0
  m_Script: {fileID: 11500000, guid: 366554337e90ae14d84453bd3964581d, type: 3}
  m_Name: snow_flower_seeds
  m_EditorClassIdentifier: 
  item_name: snow_flower_seeds
  displayed_name: Snow Flower Seeds
  use_text: Used to grow snow flowers.
  sellPrice: 20
  sprite: {fileID: 21300000, guid: bff6e94503387450f90200714450a8b2, type: 3}
  textColor: {r: 0.2, g: 0.64705884, b: 0.1254902, a: 1}
  stackable: 1
  level: 3
  icon_index: -1
  price_min: 1
  price_max: 100
  allTimeLow: 21
  allTimeHigh: 27
  shop_level: 8
  isSeed: 1
  outputYield: 1
