%YAML 1.1
%TAG !u! tag:unity3d.com,2011:
--- !u!114 &11400000
MonoBehaviour:
  m_ObjectHideFlags: 0
  m_CorrespondingSourceObject: {fileID: 0}
  m_PrefabInstance: {fileID: 0}
  m_PrefabAsset: {fileID: 0}
  m_GameObject: {fileID: 0}
  m_Enabled: 1
  m_EditorHideFlags: 0
  m_Script: {fileID: 11500000, guid: 366554337e90ae14d84453bd3964581d, type: 3}
  m_Name: swamp_drake_claws
  m_EditorClassIdentifier: 
  item_name: swamp_drake_claws
  displayed_name: Swamp Drake's Claws
  use_text: "A tainted talon of a swamp drake. Swamp drakes often replace their claws,
    so it\u2019s not too terribly hard to find them on the ground or on the bottom
    of the riverbank, but you should take it as a warning that you might not be alone
    wherever you are\u2026"
  sellPrice: 40
  sprite: {fileID: 21300000, guid: cb9ded4e1e5174d9e9494dcdcee02195, type: 3}
  textColor: {r: 0.5566038, g: 0.5566038, b: 0.5566038, a: 1}
  stackable: 1
  level: 2
  icon_index: -1
  price_min: 1
  price_max: 100
  allTimeLow: 5
  allTimeHigh: 7
  shop_level: 0
  isSeed: 0
  outputYield: 1
