%YAML 1.1
%TAG !u! tag:unity3d.com,2011:
--- !u!114 &11400000
MonoBehaviour:
  m_ObjectHideFlags: 0
  m_CorrespondingSourceObject: {fileID: 0}
  m_PrefabInstance: {fileID: 0}
  m_PrefabAsset: {fileID: 0}
  m_GameObject: {fileID: 0}
  m_Enabled: 1
  m_EditorHideFlags: 0
  m_Script: {fileID: 11500000, guid: 366554337e90ae14d84453bd3964581d, type: 3}
  m_Name: water
  m_EditorClassIdentifier: 
  item_name: water
  displayed_name: Water
  use_text: "It\u2019s just a bucket of plain, ordinary water- but it has the power
    to conceive new life, and with the right amount of magic, make wonderful new
    things."
  sellPrice: 1
  sprite: {fileID: 21300000, guid: 76d121a97398041b3970aea6922c249b, type: 3}
  textColor: {r: 0.012815925, g: 0.36700213, b: 0.9056604, a: 1}
  stackable: 1
  level: 0
  icon_index: 0
  price_min: 1
  price_max: 100
  allTimeLow: 1
  allTimeHigh: 1
  shop_level: 0
  isSeed: 1
  outputYield: 1
