%YAML 1.1
%TAG !u! tag:unity3d.com,2011:
--- !u!114 &11400000
MonoBehaviour:
  m_ObjectHideFlags: 0
  m_CorrespondingSourceObject: {fileID: 0}
  m_PrefabInstance: {fileID: 0}
  m_PrefabAsset: {fileID: 0}
  m_GameObject: {fileID: 0}
  m_Enabled: 1
  m_EditorHideFlags: 0
  m_Script: {fileID: 11500000, guid: c140537b342d9e647bc7a7a5d7099db4, type: 3}
  m_Name: wick_grass
  m_EditorClassIdentifier: 
  item_name: wick_grass
  displayed_name: Wick Grass
  use_text: A burning bush that eternally smolders with embers. The tips are the
    most hot- often times alight with a little flame almost like a candle. Scholars
    often use this in place of candles often, but keep a tray around to collect the
    ashes and embers that fall from it- for they can be used to make a great many
    things.
  sellPrice: 7
  sprite: {fileID: 21300000, guid: 77034d7bae89c4c69a0ca650a92f3f10, type: 3}
  textColor: {r: 0.21960784, g: 0.64705884, b: 0.1254902, a: 1}
  stackable: 1
  level: 3
  icon_index: -1
  price_min: 1
  price_max: 100
  allTimeLow: 5
  allTimeHigh: 26
  shop_level: 8
  isSeed: 0
  outputYield: 3
  availableOnDay: 0
  crafting_type: 1
  recipe:
  - {fileID: 11400000, guid: ef6746eecf0b6b74bb45ffcca4ea7f4b, type: 2}
  - {fileID: 11400000, guid: 0a2b742cce9353242a9c30de2fe3692d, type: 2}
  - {fileID: 0}
  - {fileID: 0}
  days_to_craft: 3
