%YAML 1.1
%TAG !u! tag:unity3d.com,2011:
--- !u!114 &11400000
MonoBehaviour:
  m_ObjectHideFlags: 0
  m_CorrespondingSourceObject: {fileID: 0}
  m_PrefabInstance: {fileID: 0}
  m_PrefabAsset: {fileID: 0}
  m_GameObject: {fileID: 0}
  m_Enabled: 1
  m_EditorHideFlags: 0
  m_Script: {fileID: 11500000, guid: 366554337e90ae14d84453bd3964581d, type: 3}
  m_Name: wind_eagle_feather
  m_EditorClassIdentifier: 
  item_name: wind_eagle_feather
  displayed_name: Wind Eagle Feather
  use_text: "A pretty plume that fell from a rare type of eagle only seen on the
    windiest of days. The feather itself flows and shakes about as if the wind was
    blowing against it- even if there\u2019s no actual breeze in the area, due to
    the essence of winds present in the feather itself."
  sellPrice: 2
  sprite: {fileID: 21300000, guid: 6054cf986006945d1993324e051b4689, type: 3}
  textColor: {r: 0.5566038, g: 0.5566038, b: 0.5566038, a: 1}
  stackable: 1
  level: 1
  icon_index: -1
  price_min: 1
  price_max: 100
  allTimeLow: 5
  allTimeHigh: 6
  shop_level: 0
  isSeed: 0
  outputYield: 1
