%YAML 1.1
%TAG !u! tag:unity3d.com,2011:
--- !u!114 &11400000
MonoBehaviour:
  m_ObjectHideFlags: 0
  m_CorrespondingSourceObject: {fileID: 0}
  m_PrefabInstance: {fileID: 0}
  m_PrefabAsset: {fileID: 0}
  m_GameObject: {fileID: 0}
  m_Enabled: 1
  m_EditorHideFlags: 0
  m_Script: {fileID: 11500000, guid: 366554337e90ae14d84453bd3964581d, type: 3}
  m_Name: wormroot_seeds
  m_EditorClassIdentifier: 
  item_name: wormroot_seeds
  displayed_name: Wormroot Seeds
  use_text: Used for growing stalks of wormroot.
  sellPrice: 5
  sprite: {fileID: 21300000, guid: fefd1885d195a4275bdbe6f05357e7c9, type: 3}
  textColor: {r: 0.22044095, g: 0.64705884, b: 0.1254902, a: 1}
  stackable: 1
  level: 1
  icon_index: 0
  price_min: 1
  price_max: 100
  allTimeLow: 4
  allTimeHigh: 5
  shop_level: 0
  isSeed: 1
  outputYield: 1
