%YAML 1.1
%TAG !u! tag:unity3d.com,2011:
--- !u!1 &2753718018764665327
GameObject:
  m_ObjectHideFlags: 0
  m_CorrespondingSourceObject: {fileID: 0}
  m_PrefabInstance: {fileID: 0}
  m_PrefabAsset: {fileID: 0}
  serializedVersion: 6
  m_Component:
  - component: {fileID: 3183266951831634833}
  - component: {fileID: 3579681405068720530}
  - component: {fileID: 3831113771892455813}
  m_Layer: 0
  m_Name: Dialogue System
  m_TagString: Untagged
  m_Icon: {fileID: 0}
  m_NavMeshLayer: 0
  m_StaticEditorFlags: 0
  m_IsActive: 1
--- !u!4 &3183266951831634833
Transform:
  m_ObjectHideFlags: 0
  m_CorrespondingSourceObject: {fileID: 0}
  m_PrefabInstance: {fileID: 0}
  m_PrefabAsset: {fileID: 0}
  m_GameObject: {fileID: 2753718018764665327}
  m_LocalRotation: {x: 0, y: 0, z: 0, w: 1}
  m_LocalPosition: {x: 0, y: 0, z: 0}
  m_LocalScale: {x: 1, y: 1, z: 1}
  m_Children:
  - {fileID: 7084386685998634907}
  m_Father: {fileID: 0}
  m_RootOrder: 0
  m_LocalEulerAnglesHint: {x: 0, y: 0, z: 0}
--- !u!114 &3579681405068720530
MonoBehaviour:
  m_ObjectHideFlags: 0
  m_CorrespondingSourceObject: {fileID: 0}
  m_PrefabInstance: {fileID: 0}
  m_PrefabAsset: {fileID: 0}
  m_GameObject: {fileID: 2753718018764665327}
  m_Enabled: 1
  m_EditorHideFlags: 0
  m_Script: {fileID: 11500000, guid: 4bec29c0a230741bdac901dba8da47ee, type: 3}
  m_Name: 
  m_EditorClassIdentifier: 
  yarnProject: {fileID: 0}
  _variableStorage: {fileID: 3831113771892455813}
  dialogueViews:
  - {fileID: 7778558435068644806}
  - {fileID: 3292657645895612466}
  startNode: Start
  startAutomatically: 1
  runSelectedOptionAsLine: 0
  lineProvider: {fileID: 0}
  verboseLogging: 1
  onNodeStart:
    m_PersistentCalls:
      m_Calls: []
  onNodeComplete:
    m_PersistentCalls:
      m_Calls: []
  onDialogueComplete:
    m_PersistentCalls:
      m_Calls: []
  onCommand:
    m_PersistentCalls:
      m_Calls: []
--- !u!114 &3831113771892455813
MonoBehaviour:
  m_ObjectHideFlags: 0
  m_CorrespondingSourceObject: {fileID: 0}
  m_PrefabInstance: {fileID: 0}
  m_PrefabAsset: {fileID: 0}
  m_GameObject: {fileID: 2753718018764665327}
  m_Enabled: 1
  m_EditorHideFlags: 0
  m_Script: {fileID: 11500000, guid: 610c541718d694070a21327d1ae62e75, type: 3}
  m_Name: 
  m_EditorClassIdentifier: 
  showDebug: 0
  debugTextView: {fileID: 0}
--- !u!1 &7895946088576098565
GameObject:
  m_ObjectHideFlags: 0
  m_CorrespondingSourceObject: {fileID: 0}
  m_PrefabInstance: {fileID: 0}
  m_PrefabAsset: {fileID: 0}
  serializedVersion: 6
  m_Component:
  - component: {fileID: 7084386685998634907}
  - component: {fileID: 3739197626111815070}
  - component: {fileID: 7869241421422109459}
  - component: {fileID: 2788043409887271904}
  m_Layer: 5
  m_Name: Canvas
  m_TagString: Untagged
  m_Icon: {fileID: 0}
  m_NavMeshLayer: 0
  m_StaticEditorFlags: 0
  m_IsActive: 1
--- !u!224 &7084386685998634907
RectTransform:
  m_ObjectHideFlags: 0
  m_CorrespondingSourceObject: {fileID: 0}
  m_PrefabInstance: {fileID: 0}
  m_PrefabAsset: {fileID: 0}
  m_GameObject: {fileID: 7895946088576098565}
  m_LocalRotation: {x: 0, y: 0, z: 0, w: 1}
  m_LocalPosition: {x: 0, y: 0, z: 0}
  m_LocalScale: {x: 0, y: 0, z: 0}
  m_Children:
  - {fileID: 7778558435068644803}
  - {fileID: 3292657645895612462}
  m_Father: {fileID: 3183266951831634833}
  m_RootOrder: 0
  m_LocalEulerAnglesHint: {x: 0, y: 0, z: 0}
  m_AnchorMin: {x: 0, y: 0}
  m_AnchorMax: {x: 0, y: 0}
  m_AnchoredPosition: {x: 0, y: 0}
  m_SizeDelta: {x: 0, y: 0}
  m_Pivot: {x: 0, y: 0}
--- !u!223 &3739197626111815070
Canvas:
  m_ObjectHideFlags: 0
  m_CorrespondingSourceObject: {fileID: 0}
  m_PrefabInstance: {fileID: 0}
  m_PrefabAsset: {fileID: 0}
  m_GameObject: {fileID: 7895946088576098565}
  m_Enabled: 1
  serializedVersion: 3
  m_RenderMode: 0
  m_Camera: {fileID: 0}
  m_PlaneDistance: 100
  m_PixelPerfect: 0
  m_ReceivesEvents: 1
  m_OverrideSorting: 0
  m_OverridePixelPerfect: 0
  m_SortingBucketNormalizedSize: 0
  m_AdditionalShaderChannelsFlag: 25
  m_SortingLayerID: 0
  m_SortingOrder: 0
  m_TargetDisplay: 0
--- !u!114 &7869241421422109459
MonoBehaviour:
  m_ObjectHideFlags: 0
  m_CorrespondingSourceObject: {fileID: 0}
  m_PrefabInstance: {fileID: 0}
  m_PrefabAsset: {fileID: 0}
  m_GameObject: {fileID: 7895946088576098565}
  m_Enabled: 1
  m_EditorHideFlags: 0
  m_Script: {fileID: 11500000, guid: 0cd44c1031e13a943bb63640046fad76, type: 3}
  m_Name: 
  m_EditorClassIdentifier: 
  m_UiScaleMode: 1
  m_ReferencePixelsPerUnit: 100
  m_ScaleFactor: 1
  m_ReferenceResolution: {x: 1920, y: 1080}
  m_ScreenMatchMode: 0
  m_MatchWidthOrHeight: 0
  m_PhysicalUnit: 3
  m_FallbackScreenDPI: 96
  m_DefaultSpriteDPI: 96
  m_DynamicPixelsPerUnit: 1
  m_PresetInfoIsWorld: 0
--- !u!114 &2788043409887271904
MonoBehaviour:
  m_ObjectHideFlags: 0
  m_CorrespondingSourceObject: {fileID: 0}
  m_PrefabInstance: {fileID: 0}
  m_PrefabAsset: {fileID: 0}
  m_GameObject: {fileID: 7895946088576098565}
  m_Enabled: 1
  m_EditorHideFlags: 0
  m_Script: {fileID: 11500000, guid: dc42784cf147c0c48a680349fa168899, type: 3}
  m_Name: 
  m_EditorClassIdentifier: 
  m_IgnoreReversedGraphics: 1
  m_BlockingObjects: 0
  m_BlockingMask:
    serializedVersion: 2
    m_Bits: 4294967295
--- !u!1001 &3427215001510475104
PrefabInstance:
  m_ObjectHideFlags: 0
  serializedVersion: 2
  m_Modification:
    m_TransformParent: {fileID: 7084386685998634907}
    m_Modifications:
    - target: {fileID: 4935123090281167010, guid: 67dde1b92175d4745aaea386e7555d40, type: 3}
      propertyPath: m_Name
      value: Line View
      objectReference: {fileID: 0}
    - target: {fileID: 4935123090281167011, guid: 67dde1b92175d4745aaea386e7555d40, type: 3}
      propertyPath: m_Pivot.x
      value: 0.5
      objectReference: {fileID: 0}
    - target: {fileID: 4935123090281167011, guid: 67dde1b92175d4745aaea386e7555d40, type: 3}
      propertyPath: m_Pivot.y
      value: 0
      objectReference: {fileID: 0}
    - target: {fileID: 4935123090281167011, guid: 67dde1b92175d4745aaea386e7555d40, type: 3}
      propertyPath: m_RootOrder
      value: 0
      objectReference: {fileID: 0}
    - target: {fileID: 4935123090281167011, guid: 67dde1b92175d4745aaea386e7555d40, type: 3}
      propertyPath: m_AnchorMax.x
      value: 1
      objectReference: {fileID: 0}
    - target: {fileID: 4935123090281167011, guid: 67dde1b92175d4745aaea386e7555d40, type: 3}
      propertyPath: m_AnchorMax.y
      value: 0
      objectReference: {fileID: 0}
    - target: {fileID: 4935123090281167011, guid: 67dde1b92175d4745aaea386e7555d40, type: 3}
      propertyPath: m_AnchorMin.x
      value: 0
      objectReference: {fileID: 0}
    - target: {fileID: 4935123090281167011, guid: 67dde1b92175d4745aaea386e7555d40, type: 3}
      propertyPath: m_AnchorMin.y
      value: 0
      objectReference: {fileID: 0}
    - target: {fileID: 4935123090281167011, guid: 67dde1b92175d4745aaea386e7555d40, type: 3}
      propertyPath: m_SizeDelta.x
      value: -400
      objectReference: {fileID: 0}
    - target: {fileID: 4935123090281167011, guid: 67dde1b92175d4745aaea386e7555d40, type: 3}
      propertyPath: m_SizeDelta.y
      value: 0
      objectReference: {fileID: 0}
    - target: {fileID: 4935123090281167011, guid: 67dde1b92175d4745aaea386e7555d40, type: 3}
      propertyPath: m_LocalPosition.x
      value: 0
      objectReference: {fileID: 0}
    - target: {fileID: 4935123090281167011, guid: 67dde1b92175d4745aaea386e7555d40, type: 3}
      propertyPath: m_LocalPosition.y
      value: 0
      objectReference: {fileID: 0}
    - target: {fileID: 4935123090281167011, guid: 67dde1b92175d4745aaea386e7555d40, type: 3}
      propertyPath: m_LocalPosition.z
      value: 0
      objectReference: {fileID: 0}
    - target: {fileID: 4935123090281167011, guid: 67dde1b92175d4745aaea386e7555d40, type: 3}
      propertyPath: m_LocalRotation.w
      value: 1
      objectReference: {fileID: 0}
    - target: {fileID: 4935123090281167011, guid: 67dde1b92175d4745aaea386e7555d40, type: 3}
      propertyPath: m_LocalRotation.x
      value: -0
      objectReference: {fileID: 0}
    - target: {fileID: 4935123090281167011, guid: 67dde1b92175d4745aaea386e7555d40, type: 3}
      propertyPath: m_LocalRotation.y
      value: -0
      objectReference: {fileID: 0}
    - target: {fileID: 4935123090281167011, guid: 67dde1b92175d4745aaea386e7555d40, type: 3}
      propertyPath: m_LocalRotation.z
      value: -0
      objectReference: {fileID: 0}
    - target: {fileID: 4935123090281167011, guid: 67dde1b92175d4745aaea386e7555d40, type: 3}
      propertyPath: m_AnchoredPosition.x
      value: 0
      objectReference: {fileID: 0}
    - target: {fileID: 4935123090281167011, guid: 67dde1b92175d4745aaea386e7555d40, type: 3}
      propertyPath: m_AnchoredPosition.y
      value: 80
      objectReference: {fileID: 0}
    - target: {fileID: 4935123090281167011, guid: 67dde1b92175d4745aaea386e7555d40, type: 3}
      propertyPath: m_LocalEulerAnglesHint.x
      value: 0
      objectReference: {fileID: 0}
    - target: {fileID: 4935123090281167011, guid: 67dde1b92175d4745aaea386e7555d40, type: 3}
      propertyPath: m_LocalEulerAnglesHint.y
      value: 0
      objectReference: {fileID: 0}
    - target: {fileID: 4935123090281167011, guid: 67dde1b92175d4745aaea386e7555d40, type: 3}
      propertyPath: m_LocalEulerAnglesHint.z
      value: 0
      objectReference: {fileID: 0}
    - target: {fileID: 4935123090281167014, guid: 67dde1b92175d4745aaea386e7555d40, type: 3}
      propertyPath: continueActionReference
      value: 
      objectReference: {fileID: 7727032971491509709, guid: ca9f5fa95ffab41fb9a615ab714db018, type: 3}
    - target: {fileID: 4935123090281167014, guid: 67dde1b92175d4745aaea386e7555d40, type: 3}
      propertyPath: continueAction.m_SingletonActionBindings.Array.data[0].m_Id
      value: 4fe33899-5b5f-4fb1-b4c7-81d260d30fcb
      objectReference: {fileID: 0}
    - target: {fileID: 4935123090281167014, guid: 67dde1b92175d4745aaea386e7555d40, type: 3}
      propertyPath: continueAction.m_SingletonActionBindings.Array.data[1].m_Id
      value: 4fe33899-5b5f-4fb1-b4c7-81d260d30fcb
      objectReference: {fileID: 0}
    - target: {fileID: 4935123090281167014, guid: 67dde1b92175d4745aaea386e7555d40, type: 3}
      propertyPath: continueAction.m_SingletonActionBindings.Array.data[0].m_Path
      value: <Keyboard>/p
      objectReference: {fileID: 0}
    - target: {fileID: 4935123090281167014, guid: 67dde1b92175d4745aaea386e7555d40, type: 3}
      propertyPath: continueAction.m_SingletonActionBindings.Array.data[1].m_Path
      value: <Keyboard>/p
      objectReference: {fileID: 0}
    - target: {fileID: 4935123090305946391, guid: 67dde1b92175d4745aaea386e7555d40, type: 3}
      propertyPath: m_AnchorMax.y
      value: 0
      objectReference: {fileID: 0}
    - target: {fileID: 4935123090305946391, guid: 67dde1b92175d4745aaea386e7555d40, type: 3}
      propertyPath: m_AnchorMin.y
      value: 0
      objectReference: {fileID: 0}
    - target: {fileID: 4935123090305946391, guid: 67dde1b92175d4745aaea386e7555d40, type: 3}
      propertyPath: m_SizeDelta.x
      value: 0
      objectReference: {fileID: 0}
    - target: {fileID: 4935123090305946391, guid: 67dde1b92175d4745aaea386e7555d40, type: 3}
      propertyPath: m_SizeDelta.y
      value: 0
      objectReference: {fileID: 0}
    - target: {fileID: 4935123090305946391, guid: 67dde1b92175d4745aaea386e7555d40, type: 3}
      propertyPath: m_AnchoredPosition.x
      value: 0
      objectReference: {fileID: 0}
    - target: {fileID: 4935123090305946391, guid: 67dde1b92175d4745aaea386e7555d40, type: 3}
      propertyPath: m_AnchoredPosition.y
      value: 0
      objectReference: {fileID: 0}
    - target: {fileID: 4935123090415912067, guid: 67dde1b92175d4745aaea386e7555d40, type: 3}
      propertyPath: m_SizeDelta.x
      value: 0
      objectReference: {fileID: 0}
    - target: {fileID: 4935123090415912067, guid: 67dde1b92175d4745aaea386e7555d40, type: 3}
      propertyPath: m_SizeDelta.y
      value: 0
      objectReference: {fileID: 0}
    - target: {fileID: 4935123090977399902, guid: 67dde1b92175d4745aaea386e7555d40, type: 3}
      propertyPath: m_AnchorMax.y
      value: 0
      objectReference: {fileID: 0}
    - target: {fileID: 4935123090977399902, guid: 67dde1b92175d4745aaea386e7555d40, type: 3}
      propertyPath: m_AnchorMin.y
      value: 0
      objectReference: {fileID: 0}
    - target: {fileID: 4935123090977399902, guid: 67dde1b92175d4745aaea386e7555d40, type: 3}
      propertyPath: m_SizeDelta.x
      value: 0
      objectReference: {fileID: 0}
    - target: {fileID: 4935123090977399902, guid: 67dde1b92175d4745aaea386e7555d40, type: 3}
      propertyPath: m_SizeDelta.y
      value: 0
      objectReference: {fileID: 0}
    - target: {fileID: 4935123090977399902, guid: 67dde1b92175d4745aaea386e7555d40, type: 3}
      propertyPath: m_AnchoredPosition.x
      value: 0
      objectReference: {fileID: 0}
    - target: {fileID: 4935123090977399902, guid: 67dde1b92175d4745aaea386e7555d40, type: 3}
      propertyPath: m_AnchoredPosition.y
      value: 0
      objectReference: {fileID: 0}
    - target: {fileID: 4935123091569765588, guid: 67dde1b92175d4745aaea386e7555d40, type: 3}
      propertyPath: m_AnchorMax.y
      value: 0
      objectReference: {fileID: 0}
    - target: {fileID: 4935123091569765588, guid: 67dde1b92175d4745aaea386e7555d40, type: 3}
      propertyPath: m_AnchorMin.y
      value: 0
      objectReference: {fileID: 0}
    - target: {fileID: 4935123091569765588, guid: 67dde1b92175d4745aaea386e7555d40, type: 3}
      propertyPath: m_SizeDelta.x
      value: 0
      objectReference: {fileID: 0}
    - target: {fileID: 4935123091569765588, guid: 67dde1b92175d4745aaea386e7555d40, type: 3}
      propertyPath: m_SizeDelta.y
      value: 0
      objectReference: {fileID: 0}
    - target: {fileID: 4935123091569765588, guid: 67dde1b92175d4745aaea386e7555d40, type: 3}
      propertyPath: m_AnchoredPosition.x
      value: 0
      objectReference: {fileID: 0}
    - target: {fileID: 4935123091569765588, guid: 67dde1b92175d4745aaea386e7555d40, type: 3}
      propertyPath: m_AnchoredPosition.y
      value: 0
      objectReference: {fileID: 0}
    - target: {fileID: 4935123091767085941, guid: 67dde1b92175d4745aaea386e7555d40, type: 3}
      propertyPath: m_AnchorMax.y
      value: 0
      objectReference: {fileID: 0}
    - target: {fileID: 4935123091767085941, guid: 67dde1b92175d4745aaea386e7555d40, type: 3}
      propertyPath: m_AnchorMin.y
      value: 0
      objectReference: {fileID: 0}
    - target: {fileID: 4935123091767085941, guid: 67dde1b92175d4745aaea386e7555d40, type: 3}
      propertyPath: m_SizeDelta.x
      value: 0
      objectReference: {fileID: 0}
    - target: {fileID: 4935123091767085941, guid: 67dde1b92175d4745aaea386e7555d40, type: 3}
      propertyPath: m_SizeDelta.y
      value: 0
      objectReference: {fileID: 0}
    - target: {fileID: 4935123091767085941, guid: 67dde1b92175d4745aaea386e7555d40, type: 3}
      propertyPath: m_AnchoredPosition.x
      value: 0
      objectReference: {fileID: 0}
    - target: {fileID: 4935123091767085941, guid: 67dde1b92175d4745aaea386e7555d40, type: 3}
      propertyPath: m_AnchoredPosition.y
      value: 0
      objectReference: {fileID: 0}
    m_RemovedComponents: []
  m_SourcePrefab: {fileID: 100100000, guid: 67dde1b92175d4745aaea386e7555d40, type: 3}
--- !u!224 &7778558435068644803 stripped
RectTransform:
  m_CorrespondingSourceObject: {fileID: 4935123090281167011, guid: 67dde1b92175d4745aaea386e7555d40, type: 3}
  m_PrefabInstance: {fileID: 3427215001510475104}
  m_PrefabAsset: {fileID: 0}
--- !u!114 &7778558435068644806 stripped
MonoBehaviour:
  m_CorrespondingSourceObject: {fileID: 4935123090281167014, guid: 67dde1b92175d4745aaea386e7555d40, type: 3}
  m_PrefabInstance: {fileID: 3427215001510475104}
  m_PrefabAsset: {fileID: 0}
  m_GameObject: {fileID: 0}
  m_Enabled: 1
  m_EditorHideFlags: 0
  m_Script: {fileID: 11500000, guid: ddcdd604a328c4ab296f048eb7b3a925, type: 3}
  m_Name: 
  m_EditorClassIdentifier: 
--- !u!1001 &8823395146793236361
PrefabInstance:
  m_ObjectHideFlags: 0
  serializedVersion: 2
  m_Modification:
    m_TransformParent: {fileID: 7084386685998634907}
    m_Modifications:
    - target: {fileID: 6323935187928403876, guid: 638e885a48f1a46c29aaa1b64688b208, type: 3}
      propertyPath: m_Name
      value: Options List View
      objectReference: {fileID: 0}
    - target: {fileID: 6323935187928403879, guid: 638e885a48f1a46c29aaa1b64688b208, type: 3}
      propertyPath: m_Pivot.x
      value: 0.5
      objectReference: {fileID: 0}
    - target: {fileID: 6323935187928403879, guid: 638e885a48f1a46c29aaa1b64688b208, type: 3}
      propertyPath: m_Pivot.y
      value: 0
      objectReference: {fileID: 0}
    - target: {fileID: 6323935187928403879, guid: 638e885a48f1a46c29aaa1b64688b208, type: 3}
      propertyPath: m_RootOrder
      value: 1
      objectReference: {fileID: 0}
    - target: {fileID: 6323935187928403879, guid: 638e885a48f1a46c29aaa1b64688b208, type: 3}
      propertyPath: m_AnchorMax.x
      value: 1
      objectReference: {fileID: 0}
    - target: {fileID: 6323935187928403879, guid: 638e885a48f1a46c29aaa1b64688b208, type: 3}
      propertyPath: m_AnchorMax.y
      value: 0
      objectReference: {fileID: 0}
    - target: {fileID: 6323935187928403879, guid: 638e885a48f1a46c29aaa1b64688b208, type: 3}
      propertyPath: m_AnchorMin.x
      value: 0
      objectReference: {fileID: 0}
    - target: {fileID: 6323935187928403879, guid: 638e885a48f1a46c29aaa1b64688b208, type: 3}
      propertyPath: m_AnchorMin.y
      value: 0
      objectReference: {fileID: 0}
    - target: {fileID: 6323935187928403879, guid: 638e885a48f1a46c29aaa1b64688b208, type: 3}
      propertyPath: m_SizeDelta.x
      value: -400.00003
      objectReference: {fileID: 0}
    - target: {fileID: 6323935187928403879, guid: 638e885a48f1a46c29aaa1b64688b208, type: 3}
      propertyPath: m_SizeDelta.y
      value: 0
      objectReference: {fileID: 0}
    - target: {fileID: 6323935187928403879, guid: 638e885a48f1a46c29aaa1b64688b208, type: 3}
      propertyPath: m_LocalPosition.x
      value: 0
      objectReference: {fileID: 0}
    - target: {fileID: 6323935187928403879, guid: 638e885a48f1a46c29aaa1b64688b208, type: 3}
      propertyPath: m_LocalPosition.y
      value: 0
      objectReference: {fileID: 0}
    - target: {fileID: 6323935187928403879, guid: 638e885a48f1a46c29aaa1b64688b208, type: 3}
      propertyPath: m_LocalPosition.z
      value: 0
      objectReference: {fileID: 0}
    - target: {fileID: 6323935187928403879, guid: 638e885a48f1a46c29aaa1b64688b208, type: 3}
      propertyPath: m_LocalRotation.w
      value: 1
      objectReference: {fileID: 0}
    - target: {fileID: 6323935187928403879, guid: 638e885a48f1a46c29aaa1b64688b208, type: 3}
      propertyPath: m_LocalRotation.x
      value: -0
      objectReference: {fileID: 0}
    - target: {fileID: 6323935187928403879, guid: 638e885a48f1a46c29aaa1b64688b208, type: 3}
      propertyPath: m_LocalRotation.y
      value: -0
      objectReference: {fileID: 0}
    - target: {fileID: 6323935187928403879, guid: 638e885a48f1a46c29aaa1b64688b208, type: 3}
      propertyPath: m_LocalRotation.z
      value: -0
      objectReference: {fileID: 0}
    - target: {fileID: 6323935187928403879, guid: 638e885a48f1a46c29aaa1b64688b208, type: 3}
      propertyPath: m_AnchoredPosition.x
      value: 0
      objectReference: {fileID: 0}
    - target: {fileID: 6323935187928403879, guid: 638e885a48f1a46c29aaa1b64688b208, type: 3}
      propertyPath: m_AnchoredPosition.y
      value: 80
      objectReference: {fileID: 0}
    - target: {fileID: 6323935187928403879, guid: 638e885a48f1a46c29aaa1b64688b208, type: 3}
      propertyPath: m_LocalEulerAnglesHint.x
      value: 0
      objectReference: {fileID: 0}
    - target: {fileID: 6323935187928403879, guid: 638e885a48f1a46c29aaa1b64688b208, type: 3}
      propertyPath: m_LocalEulerAnglesHint.y
      value: 0
      objectReference: {fileID: 0}
    - target: {fileID: 6323935187928403879, guid: 638e885a48f1a46c29aaa1b64688b208, type: 3}
      propertyPath: m_LocalEulerAnglesHint.z
      value: 0
      objectReference: {fileID: 0}
    - target: {fileID: 6323935188436132820, guid: 638e885a48f1a46c29aaa1b64688b208, type: 3}
      propertyPath: m_AnchorMax.y
      value: 0
      objectReference: {fileID: 0}
    - target: {fileID: 6323935188436132820, guid: 638e885a48f1a46c29aaa1b64688b208, type: 3}
      propertyPath: m_AnchorMin.y
      value: 0
      objectReference: {fileID: 0}
    - target: {fileID: 6323935188436132820, guid: 638e885a48f1a46c29aaa1b64688b208, type: 3}
      propertyPath: m_SizeDelta.x
      value: 0
      objectReference: {fileID: 0}
    - target: {fileID: 6323935188436132820, guid: 638e885a48f1a46c29aaa1b64688b208, type: 3}
      propertyPath: m_SizeDelta.y
      value: 0
      objectReference: {fileID: 0}
    - target: {fileID: 6323935188436132820, guid: 638e885a48f1a46c29aaa1b64688b208, type: 3}
      propertyPath: m_AnchoredPosition.x
      value: 0
      objectReference: {fileID: 0}
    - target: {fileID: 6323935188436132820, guid: 638e885a48f1a46c29aaa1b64688b208, type: 3}
      propertyPath: m_AnchoredPosition.y
      value: 0
      objectReference: {fileID: 0}
    m_RemovedComponents: []
  m_SourcePrefab: {fileID: 100100000, guid: 638e885a48f1a46c29aaa1b64688b208, type: 3}
--- !u!224 &3292657645895612462 stripped
RectTransform:
  m_CorrespondingSourceObject: {fileID: 6323935187928403879, guid: 638e885a48f1a46c29aaa1b64688b208, type: 3}
  m_PrefabInstance: {fileID: 8823395146793236361}
  m_PrefabAsset: {fileID: 0}
--- !u!114 &3292657645895612466 stripped
MonoBehaviour:
  m_CorrespondingSourceObject: {fileID: 6323935187928403899, guid: 638e885a48f1a46c29aaa1b64688b208, type: 3}
  m_PrefabInstance: {fileID: 8823395146793236361}
  m_PrefabAsset: {fileID: 0}
  m_GameObject: {fileID: 0}
  m_Enabled: 1
  m_EditorHideFlags: 0
  m_Script: {fileID: 11500000, guid: 8ac0c40fc910845709d9cef7c876cb99, type: 3}
  m_Name: 
  m_EditorClassIdentifier: 
