%YAML 1.1
%TAG !u! tag:unity3d.com,2011:
--- !u!114 &11400000
MonoBehaviour:
  m_ObjectHideFlags: 0
  m_CorrespondingSourceObject: {fileID: 0}
  m_PrefabInstance: {fileID: 0}
  m_PrefabAsset: {fileID: 0}
  m_GameObject: {fileID: 0}
  m_Enabled: 1
  m_EditorHideFlags: 0
  m_Script: {fileID: 11500000, guid: bbd193566477c8943936c0bb6f381b64, type: 3}
  m_Name: FoundFreshWater
  m_EditorClassIdentifier: 
  brains_check: 52
  brawn_check: 0
  requirement: 1
  goHomeOnFailure: 0
  possibleLogsStart:
  - Ah, the dusty trail...
  - Weather isn't too bad today!
  - Sure hope there's no monsters out here...
  - Patrolling the grasslands almost makes you wish for... well, lunch, right now-
    I could eat a horse!
  - On the road again....
  - I really wish {random} would stop whistling, they're so out of tune
  - Wish I brought more snacks for the road
  - I love the open road
  - I'm gonna poke around some, and see what I can find...
  - '*cheery whistling*'
  - I feel a lot safer with {strongest} around
  possibleLogsSuccess:
  - Today, {smartest} heard some noises from the forest. We checked it out and found
    a freshwater spring! Refreshing!
  - Woah, a spring- and not the bouncy kind, either! Fresh water for us!
  - We found an old farmhouse, and the well still works! Stockin' up on water here!
  - Nice! Found a fresh creek in the forest and helped ourselves to some water!
  possibleLogsFailure:
  - I thought I saw something... eh, probably nothing.
  - '*cheery whistling*'
  - Something tells me I just missed something...
  - Why do I feel like I'm forgetting something...?
  - I sure do love being blissfully unaware of my environment! It has no drawbacks!
  - Wish I brought more snacks for the road
  rewards:
  - item: {fileID: 11400000, guid: 0a2b742cce9353242a9c30de2fe3692d, type: 2}
    amount: 3
