%YAML 1.1
%TAG !u! tag:unity3d.com,2011:
--- !u!114 &11400000
MonoBehaviour:
  m_ObjectHideFlags: 0
  m_CorrespondingSourceObject: {fileID: 0}
  m_PrefabInstance: {fileID: 0}
  m_PrefabAsset: {fileID: 0}
  m_GameObject: {fileID: 0}
  m_Enabled: 1
  m_EditorHideFlags: 0
  m_Script: {fileID: 11500000, guid: bbd193566477c8943936c0bb6f381b64, type: 3}
  m_Name: SavannahLionFight
  m_EditorClassIdentifier: 
  brains_check: 0
  brawn_check: 42
  requirement: 1
  goHomeOnFailure: 1
  possibleLogsStart:
  - This must be it! The lion should be sleeping inside.
  possibleLogsSuccess:
  - We beat the lion! Let's take a trophy and head home.
  possibleLogsFailure:
  - The lion heard us coming and chased us off! Maybe next time.
  rewards:
  - item: {fileID: 11400000, guid: e587af7baf0524d41bc214f9ccdd8d8c, type: 2}
    amount: 1
  - item: {fileID: 11400000, guid: ab94370978f77e6409c29c6e6671d43f, type: 2}
    amount: 2
