%YAML 1.1
%TAG !u! tag:unity3d.com,2011:
--- !u!114 &11400000
MonoBehaviour:
  m_ObjectHideFlags: 0
  m_CorrespondingSourceObject: {fileID: 0}
  m_PrefabInstance: {fileID: 0}
  m_PrefabAsset: {fileID: 0}
  m_GameObject: {fileID: 0}
  m_Enabled: 1
  m_EditorHideFlags: 0
  m_Script: {fileID: 11500000, guid: 424367e85cdf8d24b99e4c58097a5cba, type: 3}
  m_Name: Material
  m_EditorClassIdentifier: 
  name: Material
  textColour: {r: 0.41349235, g: 0.8679245, b: 0.4801512, a: 0}
