%YAML 1.1
%TAG !u! tag:unity3d.com,2011:
--- !u!114 &11400000
MonoBehaviour:
  m_ObjectHideFlags: 0
  m_CorrespondingSourceObject: {fileID: 0}
  m_PrefabInstance: {fileID: 0}
  m_PrefabAsset: {fileID: 0}
  m_GameObject: {fileID: 0}
  m_Enabled: 1
  m_EditorHideFlags: 0
  m_Script: {fileID: 11500000, guid: 21845557c8c2ae24e911c8920ab9f7c6, type: 3}
  m_Name: Gather Resources
  m_EditorClassIdentifier: 
  name: Gather Resources
  description: 'Expected Drops: Water Stone, Goblin Teeth'
  questLengthInDays: 2
  travelTimeInDays: 0
  numEncounters: 4
  recbrains: 30
  recbrawn: 20
  guaranteedEncounters:
  - encounter: {fileID: 11400000, guid: 763ae91ea21395344aae1fe923effb66, type: 2}
    onDay: 2
  - encounter: {fileID: 11400000, guid: ad50624077e4f834f90631a3c81cf43a, type: 2}
    onDay: 1
  possibleEncounters:
  - {fileID: 11400000, guid: f7473f523f61ae247a4fc6ac721184c5, type: 2}
  - {fileID: 11400000, guid: 65ed8354ae037fe4485d2b6f64f587a5, type: 2}
