%YAML 1.1
%TAG !u! tag:unity3d.com,2011:
--- !u!114 &11400000
MonoBehaviour:
  m_ObjectHideFlags: 0
  m_CorrespondingSourceObject: {fileID: 0}
  m_PrefabInstance: {fileID: 0}
  m_PrefabAsset: {fileID: 0}
  m_GameObject: {fileID: 0}
  m_Enabled: 1
  m_EditorHideFlags: 0
  m_Script: {fileID: 11500000, guid: ebaaa2a2daa9dd646b754a498304c46d, type: 3}
  m_Name: HerbalistInNeed
  m_EditorClassIdentifier: 
  name: Helping the Herbalist
  orderInfo: A town herbalist's research has entered its final stage. She needs your
    help.
  level: 2
  give_on_shop_Level: 4
  orderLength: 8
  reward: 95
  products:
  - item: {fileID: 11400000, guid: 9afa900122ea6ee4a82ee940ba3b94a6, type: 2}
    amount: 1
  - item: {fileID: 11400000, guid: c0677d45684ba76479e5e0ccb4b49b96, type: 2}
    amount: 1
  - item: {fileID: 11400000, guid: f7b77a0ca2e0dba458a63b38d2e11807, type: 2}
    amount: 1
