%YAML 1.1
%TAG !u! tag:unity3d.com,2011:
--- !u!114 &11400000
MonoBehaviour:
  m_ObjectHideFlags: 0
  m_CorrespondingSourceObject: {fileID: 0}
  m_PrefabInstance: {fileID: 0}
  m_PrefabAsset: {fileID: 0}
  m_GameObject: {fileID: 0}
  m_Enabled: 1
  m_EditorHideFlags: 0
  m_Script: {fileID: 11500000, guid: 2c9660f5f9d069e42888fda326e39bd4, type: 3}
  m_Name: Rose
  m_EditorClassIdentifier: 
  species: Rose
  name: Rose
  hirePrice: 0
  ability: 
  level: 0
  sprite: {fileID: 21300000, guid: 4bc7f0e75fc0643a3bb1527e792dbe9e, type: 3}
  background: {fileID: 21300000, guid: 284df4f6352494b4eb5e245a5e3e2b8c, type: 3}
  icon: {fileID: 21300000, guid: b53a557daa5984b5795dbb1057821705, type: 3}
  FMOD_EventName: 
  brains: 10
  brawn: 10
