%YAML 1.1
%TAG !u! tag:unity3d.com,2011:
--- !u!114 &11400000
MonoBehaviour:
  m_ObjectHideFlags: 0
  m_CorrespondingSourceObject: {fileID: 0}
  m_PrefabInstance: {fileID: 0}
  m_PrefabAsset: {fileID: 0}
  m_GameObject: {fileID: 0}
  m_Enabled: 1
  m_EditorHideFlags: 0
  m_Script: {fileID: 11500000, guid: 2c9660f5f9d069e42888fda326e39bd4, type: 3}
  m_Name: Spider Monkey
  m_EditorClassIdentifier: 
  species: Monkey
  name: 
  hirePrice: 0
  ability: 
  level: 2
  sprite: {fileID: 21300000, guid: 80acbaa762bf94c349d3caa823920b0c, type: 3}
  background: {fileID: 21300000, guid: 5bbfb8741419bb646b39ef08ee3aaa4f, type: 3}
  icon: {fileID: 21300000, guid: 63eff1710fe25f64a91036bc176e6ee5, type: 3}
  FMOD_EventName: Monkey
  brains: 6
  brawn: 6
