%YAML 1.1
%TAG !u! tag:unity3d.com,2011:
--- !u!114 &11400000
MonoBehaviour:
  m_ObjectHideFlags: 0
  m_CorrespondingSourceObject: {fileID: 0}
  m_PrefabInstance: {fileID: 0}
  m_PrefabAsset: {fileID: 0}
  m_GameObject: {fileID: 0}
  m_Enabled: 1
  m_EditorHideFlags: 0
  m_Script: {fileID: 11500000, guid: 2c9660f5f9d069e42888fda326e39bd4, type: 3}
  m_Name: Turtle
  m_EditorClassIdentifier: 
  species: Turtle
  name: 
  hirePrice: 0
  ability: 
  level: 2
  sprite: {fileID: 21300000, guid: 081db36842ea841c3b326cae9019306c, type: 3}
  background: {fileID: 21300000, guid: 284df4f6352494b4eb5e245a5e3e2b8c, type: 3}
  icon: {fileID: 21300000, guid: 3447e0a6beb91504dafb8e6658222555, type: 3}
  FMOD_EventName: Turtle
  brains: 6
  brawn: 2
